R dplyr study 2 | Shen Blog
…
select一共有两个参数，使用方式为：

select(.data, ...)

1 .data：一个data.frame格式的数据，要进行筛选的数据框。
2 …：筛选条件，这个是重点，只要能够符合要求即可选择你所需要的列。

select可以进行索引

##选择year那一列
flights %>% 
  select(year)

## # A tibble: 336,776 x 1
##     year
##    <int>
##  1  2013
##  2  2013
##  3  2013
##  4  2013
##  5  2013
##  6  2013
##  7  2013
##  8  2013
##  9  2013
## 10  2013
## # ... with 336,766 more rows

##选出第一列
flights %>% 
  select(1)

## # A tibble: 336,776 x 1
##     year
##    <int>
##  1  2013
##  2  2013
##  3  2013
##  4  2013
##  5  2013
##  6  2013
##  7  2013
##  8  2013
##  9  2013
## 10  2013
## # ... with 336,766 more rows

select既可以使用列名进行索引（注意可以不用加引号），也可以使用列号及逆行索引。

select可以进行切片操作

##选择从year到day的列
flights %>% 
  select(year:day)

## # A tibble: 336,776 x 3
##     year month   day
##    <int> <int> <int>
##  1  2013     1     1
##  2  2013     1     1
##  3  2013     1     1
##  4  2013     1     1
##  5  2013     1     1
##  6  2013     1     1
##  7  2013     1     1
##  8  2013     1     1
##  9  2013     1     1
## 10  2013     1     1
## # ... with 336,766 more rows

##选出1：3列
flights %>% 
  select(1:3)

## # A tibble: 336,776 x 3
##     year month   day
##    <int> <int> <int>
##  1  2013     1     1
##  2  2013     1     1
##  3  2013     1     1
##  4  2013     1     1
##  5  2013     1     1
##  6  2013     1     1
##  7  2013     1     1
##  8  2013     1     1
##  9  2013     1     1
## 10  2013     1     1
## # ... with 336,766 more rows

##选出year到day，以及dep_delay列
flights %>% 
  select(year:day, dep_delay)

## # A tibble: 336,776 x 4
##     year month   day dep_delay
##    <int> <int> <int>     <dbl>
##  1  2013     1     1         2
##  2  2013     1     1         4
##  3  2013     1     1         2
##  4  2013     1     1        -1
##  5  2013     1     1        -6
##  6  2013     1     1        -4
##  7  2013     1     1        -5
##  8  2013     1     1        -3
##  9  2013     1     1        -3
## 10  2013     1     1        -2
## # ... with 336,766 more rows

select可以对列名进行重命名

使用select函数也可以实现对列名的重新命名。

flights %>% 
  select(DEP_TIME = dep_time)

## # A tibble: 336,776 x 1
##    DEP_TIME
##       <int>
##  1      517
##  2      533
##  3      542
##  4      544
##  5      554
##  6      554
##  7      555
##  8      557
##  9      557
## 10      558
## # ... with 336,766 more rows

可以看到，再将dep_time这一列单独挑出来的同时，也将其列明进行了重命名。但是，这种重命名方式最后只能得到重命名的列，如果只是单纯的想对某一列进行命名，而不改变整个数据框时，应该使用dplyr中的另一个函数：remname。

flights %>% 
  rename(DEP_TIME = dep_time)

## # A tibble: 336,776 x 19
##     year month   day DEP_TIME sched_dep_time dep_delay arr_time
##    <int> <int> <int>    <int>          <int>     <dbl>    <int>
##  1  2013     1     1      517            515         2      830
##  2  2013     1     1      533            529         4      850
##  3  2013     1     1      542            540         2      923
##  4  2013     1     1      544            545        -1     1004
##  5  2013     1     1      554            600        -6      812
##  6  2013     1     1      554            558        -4      740
##  7  2013     1     1      555            600        -5      913
##  8  2013     1     1      557            600        -3      709
##  9  2013     1     1      557            600        -3      838
## 10  2013     1     1      558            600        -2      753
## # ... with 336,766 more rows, and 12 more variables: sched_arr_time <int>,
## #   arr_delay <dbl>, carrier <chr>, flight <int>, tailnum <chr>,
## #   origin <chr>, dest <chr>, air_time <dbl>, distance <dbl>, hour <dbl>,
## #   minute <dbl>, time_hour <dttm>

当然，如果选出的列为多列，那么仍然可以使用select的重命名功能对选出的列进行命名，这时候列名就是你设定的列名后加数字的形式。

flights %>% 
  select(obs = starts_with("arr"))

## # A tibble: 336,776 x 2
##     obs1  obs2
##    <int> <dbl>
##  1   830    11
##  2   850    20
##  3   923    33
##  4  1004   -18
##  5   812   -25
##  6   740    12
##  7   913    19
##  8   709   -14
##  9   838    -8
## 10   753     8
## # ... with 336,766 more rows
…
matches(),需要注意的是，该函数支持正则表达式；

num_range();

one_of();

everything().

第一类，望文生义即可。

##所有以dep开头的列
flights %>% 
  select(starts_with("dep"))

## # A tibble: 336,776 x 2
##    dep_time dep_delay
##       <int>     <dbl>
##  1      517         2
##  2      533         4
##  3      542         2
##  4      544        -1
##  5      554        -6
##  6      554        -4
##  7      555        -5
##  8      557        -3
##  9      557        -3
## 10      558        -2
## # ... with 336,766 more rows

##所有以time结尾的列
flights %>% 
  select(ends_with("time"))

## # A tibble: 336,776 x 5
##    dep_time sched_dep_time arr_time sched_arr_time air_time
##       <int>          <int>    <int>          <int>    <dbl>
##  1      517            515      830            819      227
##  2      533            529      850            830      227
##  3      542            540      923            850      160
##  4      544            545     1004           1022      183
##  5      554            600      812            837      116
##  6      554            558      740            728      150
##  7      555            600      913            854      158
##  8      557            600      709            723       53
##  9      557            600      838            846      140
## 10      558            600      753            745      138
## # ... with 336,766 more rows

##所有列名中包含有arr的列
flights %>% 
  select(contains("arr"))

## # A tibble: 336,776 x 4
##    arr_time sched_arr_time arr_delay carrier
##       <int>          <int>     <dbl> <chr>  
##  1      830            819        11 UA     
##  2      850            830        20 UA     
##  3      923            850        33 AA     
##  4     1004           1022       -18 B6     
##  5      812            837       -25 DL     
##  6      740            728        12 UA     
##  7      913            854        19 B6     
##  8      709            723       -14 EV     
##  9      838            846        -8 B6     
## 10      753            745         8 AA     
## # ... with 336,766 more rows

支持正则表达式的matches()函数

##所有列名中间含有下划线的列
flights %>% 
  select(matches("[a-zA-Z]?_[a-zA-Z]?"))

## # A tibble: 336,776 x 8
##    dep_time sched_dep_time dep_delay arr_time sched_arr_time arr_delay
##       <int>          <int>     <dbl>    <int>          <int>     <dbl>
##  1      517            515         2      830            819        11
##  2      533            529         4      850            830        20
##  3      542            540         2      923            850        33
##  4      544            545        -1     1004           1022       -18
##  5      554            600        -6      812            837       -25
##  6      554            558        -4      740            728        12
##  7      555            600        -5      913            854        19
##  8      557            600        -3      709            723       -14
##  9      557            600        -3      838            846        -8
## 10      558            600        -2      753            745         8
## # ... with 336,766 more rows, and 2 more variables: air_time <dbl>,
## #   time_hour <dttm>
…
##所有列名中间含有下划线的列
flights %>% 
  select(matches("[a-zA-Z]?_[a-zA-Z]?"))

## # A tibble: 336,776 x 8
##    dep_time sched_dep_time dep_delay arr_time sched_arr_time arr_delay
##       <int>          <int>     <dbl>    <int>          <int>     <dbl>
##  1      517            515         2      830            819        11
##  2      533            529         4      850            830        20
##  3      542            540         2      923            850        33
##  4      544            545        -1     1004           1022       -18
##  5      554            600        -6      812            837       -25
##  6      554            558        -4      740            728        12
##  7      555            600        -5      913            854        19
##  8      557            600        -3      709            723       -14
##  9      557            600        -3      838            846        -8
## 10      558            600        -2      753            745         8
## # ... with 336,766 more rows, and 2 more variables: air_time <dbl>,
## #   time_hour <dttm>

类似于%in%功能的one_of()函数

##所有属于设定的范围内的列
flights %>% 
  select(one_of(c("year", "hour", "test")))

## Warning: Unknown columns: `test`

## # A tibble: 336,776 x 2
##     year  hour
##    <int> <dbl>
##  1  2013     5
##  2  2013     5
##  3  2013     5
##  4  2013     5
##  5  2013     6
##  6  2013     5
##  7  2013     6
##  8  2013     6
##  9  2013     6
## 10  2013     6
## # ... with 336,766 more rows

取所有列的everything()函数

everything()函数是将所有的列都取出。它的作用主要是用来将某一列或者某几列放在最面。

##将month这一列提出并放到最面
flights %>% 
  select(month, everything())

## # A tibble: 336,776 x 19
##    month  year   day dep_time sched_dep_time dep_delay arr_time
##    <int> <int> <int>    <int>          <int>     <dbl>    <int>
##  1     1  2013     1      517            515         2      830
##  2     1  2013     1      533            529         4      850
##  3     1  2013     1      542            540         2      923
##  4     1  2013     1      544            545        -1     1004
##  5     1  2013     1      554            600        -6      812
##  6     1  2013     1      554            558        -4      740
##  7     1  2013     1      555            600        -5      913
##  8     1  2013     1      557            600        -3      709
##  9     1  2013     1      557            600        -3      838
## 10     1  2013     1      558            600        -2      753
## # ... with 336,766 more rows, and 12 more variables: sched_arr_time <int>,
## #   arr_delay <dbl>, carrier <chr>, flight <int>, tailnum <chr>,
## #   origin <chr>, dest <chr>, air_time <dbl>, distance <dbl>, hour <dbl>,
## #   minute <dbl>, time_hour <dttm>

select支持-号操作（drop），去除掉符合你要求的列

在上面任意的筛选中，只要在前面加上-，则选出与之相反的列。

flights %>% 
  select(-year)

## # A tibble: 336,776 x 18
##    month   day dep_time sched_dep_time dep_delay arr_time sched_arr_time
##    <int> <int>    <int>          <int>     <dbl>    <int>          <int>
##  1     1     1      517            515         2      830            819
##  2     1     1      533            529         4      850            830
##  3     1     1      542            540         2      923            850
##  4     1     1      544            545        -1     1004           1022
##  5     1     1      554            600        -6      812            837
##  6     1     1      554            558        -4      740            728
##  7     1     1      555            600        -5      913            854
##  8     1     1      557            600        -3      709            723
##  9     1     1      557            600        -3      838            846
## 10     1     1      558            600        -2      753            745
## # ... with 336,766 more rows, and 11 more variables: arr_delay <dbl>,
## #   carrier <chr>, flight <int>, tailnum <chr>, origin <chr>, dest <chr>,
## #   air_time <dbl>, distance <dbl>, hour <dbl>, minute <dbl>,
## #   time_hour <dttm>

flights %>% 
  select(-1)

## # A tibble: 336,776 x 18
##    month   day dep_time sched_dep_time dep_delay arr_time sched_arr_time
##    <int> <int>    <int>          <int>     <dbl>    <int>          <int>
##  1     1     1      517            515         2      830            819
##  2     1     1      533            529         4      850            830
##  3     1     1      542            540         2      923            850
##  4     1     1      544            545        -1     1004           1022
##  5     1     1      554            600        -6      812            837
##  6     1     1      554            558        -4      740            728
##  7     1     1      555            600        -5      913            854
##  8     1     1      557            600        -3      709            723
##  9     1     1      557            600        -3      838            846
## 10     1     1      558            600        -2      753            745
## # ... with 336,766 more rows, and 11 more variables: arr_delay <dbl>,
## #   carrier <chr>, flight <int>, tailnum <chr>, origin <chr>, dest <chr>,
## #   air_time <dbl>, distance <dbl>, hour <dbl>, minute <dbl>,
## #   time_hour <dttm>

flights %>% 
  select(-(year:day))

## # A tibble: 336,776 x 16
##    dep_time sched_dep_time dep_delay arr_time sched_arr_time arr_delay
##       <int>          <int>     <dbl>    <int>          <int>     <dbl>
##  1      517            515         2      830            819        11
##  2      533            529         4      850            830        20
##  3      542            540         2      923            850        33
##  4      544            545        -1     1004           1022       -18
##  5      554            600        -6      812            837       -25
##  6      554            558        -4      740            728        12
##  7      555            600        -5      913            854        19
##  8      557            600        -3      709            723       -14
##  9      557            600        -3      838            846        -8
## 10      558            600        -2      753            745         8
## # ... with 336,766 more rows, and 10 more variables: carrier <chr>,
## #   flight <int>, tailnum <chr>, origin <chr>, dest <chr>, air_time <dbl>,
## #   distance <dbl>, hour <dbl>, minute <dbl>, time_hour <dttm>

flights %>% 
  select(-everything())

## # A tibble: 336,776 x 0

flights %>% 
  select(-one_of(c("year", "hour")))

## # A tibble: 336,776 x 17
##    month   day dep_time sched_dep_time dep_delay arr_time sched_arr_time
##    <int> <int>    <int>          <int>     <dbl>    <int>          <int>
##  1     1     1      517            515         2      830            819
##  2     1     1      533            529         4      850            830
##  3     1     1      542            540         2      923            850
##  4     1     1      544            545        -1     1004           1022
##  5     1     1      554            600        -6      812            837
##  6     1     1      554            558        -4      740            728
##  7     1     1      555            600        -5      913            854
##  8     1     1      557            600        -3      709            723
##  9     1     1      557            600        -3      838            846
## 10     1     1      558            600        -2      753            745
## # ... with 336,766 more rows, and 10 more variables: arr_delay <dbl>,
## #   carrier <chr>, flight <int>, tailnum <chr>, origin <chr>, dest <chr>,
## #   air_time <dbl>, distance <dbl>, minute <dbl>, time_hour <dttm>

flights %>% 
  select(-matches("[a-zA-Z]?_[a-zA-Z]?"))

## # A tibble: 336,776 x 11
##     year month   day carrier flight tailnum origin dest  distance  hour
##    <int> <int> <int> <chr>    <int> <chr>   <chr>  <chr>    <dbl> <dbl>
##  1  2013     1     1 UA        1545 N14228  EWR    IAH       1400     5
##  2  2013     1     1 UA        1714 N24211  LGA    IAH       1416     5
##  3  2013     1     1 AA        1141 N619AA  JFK    MIA       1089     5
##  4  2013     1     1 B6         725 N804JB  JFK    BQN       1576     5
##  5  2013     1     1 DL         461 N668DN  LGA    ATL        762     6
##  6  2013     1     1 UA        1696 N39463  EWR    ORD        719     5
##  7  2013     1     1 B6         507 N516JB  EWR    FLL       1065     6
##  8  2013     1     1 EV        5708 N829AS  LGA    IAD        229     6
##  9  2013     1     1 B6          79 N593JB  JFK    MCO        944     6
## 10  2013     1     1 AA         301 N3ALAA  LGA    ORD        733     6
## # ... with 336,766 more rows, and 1 more variable: minute <dbl>
…
